…
``` r
output = vector("list", length  = 500)

for (i in 1:500) {
  
  output[[i]] = sim_regression(n = 30)
}

output |>
  bind_rows()
```

    ## # A tibble: 500 × 2
    ##    beta0_hat beta1_hat
    ##        <dbl>     <dbl>
    ##  1      2.37      2.90
    ##  2      2.39      2.98
    ##  3      1.95      3.10
    ##  4      2.02      3.05
    ##  5      1.90      2.95
    ##  6      1.69      3.06
    ##  7      2.41      2.88
    ##  8      2.06      2.68
    ##  9      1.92      3.14
    ## 10      1.90      3.02
    ## # ℹ 490 more rows
…
